<svg xmlns="http://www.w3.org/2000/svg"
aria-label="Tumblr" role="img"
viewBox="0 0 512 512"><rect
width="512" height="512"
rx="15%"
fill="#35465c"/><path fill="#fff" d="M361 415c-12 13-40 21-65 21h-3c-85 0-103-61-103-98V236h-35c-3 0-6-3-6-8v-47c0-6 3-10 7-11 44-17 57-54 60-83 0-8 5-11 12-11h50c4 0 6 3 6 6v82h58c5 0 8 3 8 8v56c0 4-3 7-8 7h-58v94c0 24 16 30 25 30 10 0 18-2 23-4 8-4 13 1 14 4l15 45c2 4 3 8 0 11z"/></svg>
